Visualisations HW LD NA
…
Linkage disequilibrium

Was calculated with poppr (in other script Calculations HW LD NA.R)

##Population level
LD_pop <- read.csv("Outputs/Output LD population level.csv", sep=",")

##pop##
(LD.all_pop_df_perpop <- LD_pop %>% separate(pairloci, into=c("Locus1", "Locus2")) %>%
  filter(p.Ia<0.05) %>% group_by(pop) %>%
  summarise(n_sign=n()) %>% arrange(desc(n_sign))) #Leave out Wetteren?

## # A tibble: 55 x 2
##    pop               n_sign
##    <chr>              <int>
##  1 Wetteren              71
##  2 Kalmthout1            32
##  3 Keiheuvel             32
##  4 Kopberg               32
##  5 DuinbossenDeHaan      29
##  6 Lagland               25
##  7 Vloethemveld-Zuid     24
##  8 Kortenhoeff-NL        23
##  9 Oosthoekduinen        23
## 10 Zwinbosjes-grazed     22
## # ... with 45 more rows
…
#Population-year level

LD_popyear <- read.csv("Outputs/Output LD popyear level.csv", sep=",")

##pop##
(LD.all_popyear_df_perpop <- LD_popyear %>% separate(pairloci, into=c("Locus1", "Locus2")) %>%
  filter(p.Ia<0.05) %>% group_by(pop) %>%
  summarise(n_sign=n()) %>% arrange(desc(n_sign))) #Leave out Wetteren?

## # A tibble: 78 x 2
##    pop                   n_sign
##    <chr>                  <int>
##  1 Wetteren2018              88
##  2 Kalmthout12020            35
##  3 Keiheuvel2020             34
##  4 Kopberg2020               31
##  5 Kortenhoeff-NL2020        29
##  6 Oosthoekduinen2018        29
##  7 Wetteren2020              29
##  8 Lagland2021               25
##  9 Plaatsduinen2020          25
## 10 Vloethemveld-Zuid2020     23
## # ... with 68 more rows
…
