Visualisation HW LD NA morethan10samplespops
…
Was calculated with poppr (in other script Calculations HW LD NA.R)

In general, not very high deviations. To leave out: 111 (403-110, 12-138, 337-153)

##Population level
LD_pop <- read.csv("Outputs/Output LD population morethan10samp level.csv", sep=",")

##pop##
LD.all_pop_df_perpop <- LD_pop %>% separate(pairloci, into=c("Locus1", "Locus2")) %>%
  filter(p.Ia<0.05) %>% group_by(pop) %>%
  summarise(n_sign=n()) %>% arrange(desc(n_sign)) #Leave out Wetteren?
LD.all_pop_df_perpop

## # A tibble: 39 x 2
##    pop              n_sign
##    <chr>             <int>
##  1 Wetteren             68
##  2 Kalmthout1           38
##  3 Keiheuvel            34
##  4 Lagland              31
##  5 Oosthoekduinen       28
##  6 Simliduinen          26
##  7 Kopberg              25
##  8 Kortenhoeff-NL       25
##  9 DuinbossenDeHaan     24
## 10 Bredene              23
## # ... with 29 more rows
…
#Population-year level

LD_popyear <- read.csv("Outputs/Output LD popyear morethan10samp level.csv", sep=",")

##pop##
(LD.all_popyear_df_perpop <- LD_popyear %>% separate(pairloci, into=c("Locus1", "Locus2")) %>%
  filter(p.Ia<0.05) %>% group_by(pop) %>%
  summarise(n_sign=n()) %>% arrange(desc(n_sign))) #Leave out Wetteren?

## # A tibble: 41 x 2
##    pop                      n_sign
##    <chr>                     <int>
##  1 Keiheuvel2020                41
##  2 Kalmthout12020               35
##  3 Wetteren2020                 32
##  4 Kopberg2020                  29
##  5 Oosthoekduinen2018           27
##  6 Kortenhoeff-NL2020           26
##  7 DuinbossenDeHaan2020         25
##  8 Geel-Bel2018                 22
##  9 Vloethemveld-Zuid2020        22
## 10 Westhoek vissersdorp2018     21
## # ... with 31 more rows
…
